…
``` r
clean_df = 
  study_df %>%
    pivot_longer(
        week_1:week_8,
        names_to = "week",
        names_prefix = "week_",
        values_to = "observation") %>%
    mutate(
      week = as.numeric(week)
      ) 
clean_df
```

    ## # A tibble: 160 × 4
    ##    id    treatment_arm  week observation
    ##    <chr> <chr>         <dbl>       <dbl>
    ##  1 01    control           1        0.2 
    ##  2 01    control           2       -1.31
    ##  3 01    control           3        0.66
    ##  4 01    control           4        1.96
    ##  5 01    control           5        0.23
    ##  6 01    control           6        1.09
    ##  7 01    control           7        0.05
    ##  8 01    control           8        1.94
    ##  9 02    control           1        1.13
    ## 10 02    control           2       -0.88
    ## # … with 150 more rows
…
filled_iris = 
  map(iris_with_missing, fill_in_missing) %>% 
  as_tibble() 

filled_iris
```

    ## # A tibble: 150 × 5
    ##    sepal_length sepal_width petal_length petal_width species
    ##           <dbl>       <dbl>        <dbl>       <dbl> <chr>  
    ##  1         5.1          3.5         1.4         0.2  setosa 
    ##  2         4.9          3           1.4         0.2  setosa 
    ##  3         4.7          3.2         1.3         0.2  setosa 
    ##  4         4.6          3.1         1.5         1.19 setosa 
    ##  5         5            3.6         1.4         0.2  setosa 
    ##  6         5.4          3.9         1.7         0.4  setosa 
    ##  7         5.82         3.4         1.4         0.3  setosa 
    ##  8         5            3.4         1.5         0.2  setosa 
    ##  9         4.4          2.9         1.4         0.2  setosa 
    ## 10         4.9          3.1         3.77        0.1  setosa 
    ## # … with 140 more rows
…
